{
  "groupA": [
    {
      "id": 0,
      "country": "Puerto",
      "flag": "https://picsum.photos/46/28"
    },
    {
      "id": 1,
      "country": "Lebanon",
      "flag": "https://picsum.photos/46/28"
    },
    {
      "id": 2,
      "country": "Jordan",
      "flag": "https://picsum.photos/46/28"
    },
    {
      "id": 3,
      "country": "Aruba",
      "flag": "https://picsum.photos/46/28"
    }
  ],
  "groupB": [
    {
      "id": 0,
      "country": "Nepal",
      "flag": "https://picsum.photos/46/28"
    },
    {
      "id": 1,
      "country": "Austria",
      "flag": "https://picsum.photos/46/28"
    },
    {
      "id": 2,
      "country": "French",
      "flag": "https://picsum.photos/46/28"
    },
    {
      "id": 3,
      "country": "Africa",
      "flag": "https://picsum.photos/46/28"
    }
  ],
  "groupC": [
    {
      "id": 0,
      "country": "Suriname",
      "flag": "https://picsum.photos/46/28"
    },
    {
      "id": 1,
      "country": "Belgium",
      "flag": "https://picsum.photos/46/28"
    },
    {
      "id": 2,
      "country": "Angola",
      "flag": "https://picsum.photos/46/28"
    },
    {
      "id": 3,
      "country": "Sweden",
      "flag": "https://picsum.photos/46/28"
    }
  ],
  "groupD": [
    {
      "id": 0,
      "country": "Tanzania",
      "flag": "https://picsum.photos/46/28"
    },
    {
      "id": 1,
      "country": "Grenada",
      "flag": "https://picsum.photos/46/28"
    },
    {
      "id": 2,
      "country": "Eritrea",
      "flag": "https://picsum.photos/46/28"
    },
    {
      "id": 3,
      "country": "Chile",
      "flag": "https://picsum.photos/46/28"
    }
  ],
  "groupE": [
    {
      "id": 0,
      "country": "Madagascar",
      "flag": "https://picsum.photos/46/28"
    },
    {
      "id": 1,
      "country": "Yemen",
      "flag": "https://picsum.photos/46/28"
    },
    {
      "id": 2,
      "country": "Togo",
      "flag": "https://picsum.photos/46/28"
    },
    {
      "id": 3,
      "country": "Djibouti",
      "flag": "https://picsum.photos/46/28"
    }
  ],
  "groupF": [
    {
      "id": 0,
      "country": "Ecuador",
      "flag": "https://picsum.photos/46/28"
    },
    {
      "id": 1,
      "country": "Dominican",
      "flag": "https://picsum.photos/46/28"
    },
    {
      "id": 2,
      "country": "Swaziland",
      "flag": "https://picsum.photos/46/28"
    },
    {
      "id": 3,
      "country": "Svalbard",
      "flag": "https://picsum.photos/46/28"
    }
  ],
  "groupG": [
    {
      "id": 0,
      "country": "Caledonia",
      "flag": "https://picsum.photos/46/28"
    },
    {
      "id": 1,
      "country": "Tonga",
      "flag": "https://picsum.photos/46/28"
    },
    {
      "id": 2,
      "country": "Thailand",
      "flag": "https://picsum.photos/46/28"
    },
    {
      "id": 3,
      "country": "Latvia",
      "flag": "https://picsum.photos/46/28"
    }
  ],
  "groupH": [
    {
      "id": 0,
      "country": "Netherlands",
      "flag": "https://picsum.photos/46/28"
    },
    {
      "id": 1,
      "country": "Uganda",
      "flag": "https://picsum.photos/46/28"
    },
    {
      "id": 2,
      "country": "Maldives",
      "flag": "https://picsum.photos/46/28"
    },
    {
      "id": 3,
      "country": "Cuba",
      "flag": "https://picsum.photos/46/28"
    }
  ]
}
